{
    "questions": [
        "hello",
        "hi",
        "howdy",
        "Greetings", 
        "how are you?"
    ],
    "answers": [
        "Hey there!",
        "Hello",
        "Hi",
        "Greetings",
        "I'm doing good thank you!"
    ]
}